10. Tidy basic
…
    2009-01-05 
    0.3126585 
    -0.4567188 
    0.5428854 

    2009-01-06 
    0.3388131 
    -0.2354290 
    0.4567758 

gather(stocks, stock, price, -time)
## # A tibble: 30 x 3
##    time       stock   price
##    <date>     <chr>   <dbl>
##  1 2009-01-01 X      1.75  
##  2 2009-01-02 X      2.00  
##  3 2009-01-03 X     -1.25  
##  4 2009-01-04 X      0.900 
##  5 2009-01-05 X      0.313 
##  6 2009-01-06 X      0.339 
##  7 2009-01-07 X     -0.0629
##  8 2009-01-08 X      0.820 
##  9 2009-01-09 X      0.597 
## 10 2009-01-10 X      1.45  
## # ... with 20 more rows
stocks %>% gather(stock, price, -time)
## # A tibble: 30 x 3
##    time       stock   price
##    <date>     <chr>   <dbl>
##  1 2009-01-01 X      1.75  
##  2 2009-01-02 X      2.00  
##  3 2009-01-03 X     -1.25  
##  4 2009-01-04 X      0.900 
##  5 2009-01-05 X      0.313 
##  6 2009-01-06 X      0.339 
##  7 2009-01-07 X     -0.0629
##  8 2009-01-08 X      0.820 
##  9 2009-01-09 X      0.597 
## 10 2009-01-10 X      1.45  
## # ... with 20 more rows
…
Problem
Find the 32nd, 57th and 98th percentiles of runiform(200).

data<-runif(200) 
quantile(data, c(.32, .57, .98)) 

pipeline

library(babynames)
library(dplyr)
babynames #

        展開
    
# A tibble: 1,924,665 x 5

year sex   name          n   prop

1  1880 F     Mary       7065 0.0724

2  1880 F     Anna       2604 0.0267

3  1880 F     Emma       2003 0.0205

4  1880 F     Elizabeth  1939 0.0199

5  1880 F     Minnie     1746 0.0179

6  1880 F     Margaret   1578 0.0162

7  1880 F     Ida        1472 0.0151

8  1880 F     Alice      1414 0.0145

9  1880 F     Bertha     1320 0.0135

10  1880 F     Sarah      1288 0.0132

# ... with 1,924,655 more rows

#

Basic verbs

babynames %>% select(-prop)
## # A tibble: 1,924,665 x 4
##     year sex   name          n
##    <dbl> <chr> <chr>     <int>
##  1  1880 F     Mary       7065
##  2  1880 F     Anna       2604
##  3  1880 F     Emma       2003
##  4  1880 F     Elizabeth  1939
##  5  1880 F     Minnie     1746
##  6  1880 F     Margaret   1578
##  7  1880 F     Ida        1472
##  8  1880 F     Alice      1414
##  9  1880 F     Bertha     1320
## 10  1880 F     Sarah      1288
## # ... with 1,924,655 more rows
babynames %>% select(year:n)
## # A tibble: 1,924,665 x 4
##     year sex   name          n
##    <dbl> <chr> <chr>     <int>
##  1  1880 F     Mary       7065
##  2  1880 F     Anna       2604
##  3  1880 F     Emma       2003
##  4  1880 F     Elizabeth  1939
##  5  1880 F     Minnie     1746
##  6  1880 F     Margaret   1578
##  7  1880 F     Ida        1472
##  8  1880 F     Alice      1414
##  9  1880 F     Bertha     1320
## 10  1880 F     Sarah      1288
## # ... with 1,924,655 more rows
# starts_with(), ends_with(), contains()

babynames %>% filter(name == "Hadley")
## # A tibble: 163 x 5
##     year sex   name       n      prop
##    <dbl> <chr> <chr>  <int>     <dbl>
##  1  1906 M     Hadley     6 0.0000416
##  2  1908 M     Hadley    16 0.0000962
##  3  1909 M     Hadley    14 0.0000792
##  4  1910 M     Hadley     5 0.0000240
##  5  1911 M     Hadley     9 0.0000373
##  6  1912 M     Hadley    11 0.0000244
##  7  1913 M     Hadley    10 0.0000186
##  8  1914 M     Hadley    15 0.0000220
##  9  1915 M     Hadley    14 0.0000159
## 10  1916 M     Hadley    14 0.0000152
## # ... with 153 more rows
babynames %>% filter(year == 1900, sex == "F")
## # A tibble: 2,224 x 5
##     year sex   name          n   prop
##    <dbl> <chr> <chr>     <int>  <dbl>
##  1  1900 F     Mary      16706 0.0526
##  2  1900 F     Helen      6343 0.0200
##  3  1900 F     Anna       6114 0.0192
##  4  1900 F     Margaret   5304 0.0167
##  5  1900 F     Ruth       4765 0.0150
##  6  1900 F     Elizabeth  4096 0.0129
##  7  1900 F     Florence   3920 0.0123
##  8  1900 F     Ethel      3896 0.0123
##  9  1900 F     Marie      3856 0.0121
## 10  1900 F     Lillian    3414 0.0107
## # ... with 2,214 more rows
babynames %>% filter(year == 2013, sex == "F")
## # A tibble: 19,231 x 5
##     year sex   name          n    prop
##    <dbl> <chr> <chr>     <int>   <dbl>
##  1  2013 F     Sophia    21213 0.0110 
##  2  2013 F     Emma      20936 0.0109 
##  3  2013 F     Olivia    18414 0.00957
##  4  2013 F     Isabella  17631 0.00916
##  5  2013 F     Ava       15249 0.00793
##  6  2013 F     Mia       13147 0.00683
##  7  2013 F     Emily     13124 0.00682
##  8  2013 F     Abigail   12405 0.00645
##  9  2013 F     Madison   10591 0.00551
## 10  2013 F     Elizabeth  9448 0.00491
## # ... with 19,221 more rows

babynames %>%
  mutate(
    first = tolower(substr(name, 1, 1)),
    last = substr(name, nchar(name), nchar(name))
  )
## # A tibble: 1,924,665 x 7
##     year sex   name          n   prop first last 
##    <dbl> <chr> <chr>     <int>  <dbl> <chr> <chr>
##  1  1880 F     Mary       7065 0.0724 m     y    
##  2  1880 F     Anna       2604 0.0267 a     a    
##  3  1880 F     Emma       2003 0.0205 e     a    
##  4  1880 F     Elizabeth  1939 0.0199 e     h    
##  5  1880 F     Minnie     1746 0.0179 m     e    
##  6  1880 F     Margaret   1578 0.0162 m     t    
##  7  1880 F     Ida        1472 0.0151 i     a    
##  8  1880 F     Alice      1414 0.0145 a     e    
##  9  1880 F     Bertha     1320 0.0135 b     a    
## 10  1880 F     Sarah      1288 0.0132 s     h    
## # ... with 1,924,655 more rows

babynames %>%
  arrange(desc(prop))
## # A tibble: 1,924,665 x 5
##     year sex   name        n   prop
##    <dbl> <chr> <chr>   <int>  <dbl>
##  1  1880 M     John     9655 0.0815
##  2  1881 M     John     8769 0.0810
##  3  1880 M     William  9532 0.0805
##  4  1883 M     John     8894 0.0791
##  5  1881 M     William  8524 0.0787
##  6  1882 M     John     9557 0.0783
##  7  1884 M     John     9388 0.0765
##  8  1882 M     William  9298 0.0762
##  9  1886 M     John     9026 0.0758
## 10  1885 M     John     8756 0.0755
## # ... with 1,924,655 more rows
…
如何知道min-rank(value)中的value 是全局或是欄位?
hint: rm(value)

會出現甚麼結果

df %>%
group_by(sex) %>%str()

nb <-babynames %>%
  group_by(name)

babynames %>%
  group_by(name) %>%
  summarise(n = sum(n))
## # A tibble: 97,310 x 2
##    name          n
##    <chr>     <int>
##  1 Aaban       107
##  2 Aabha        35
##  3 Aabid        10
##  4 Aabir         5
##  5 Aabriella    32
##  6 Aada          5
##  7 Aadam       254
##  8 Aadan       130
##  9 Aadarsh     199
## 10 Aaden      4658
## # ... with 97,300 more rows
…
